{
    "Serilog": {
        "MinimumLevel": "Verbose",
        "Enrich": [ "FromLogContext", "WithMachineName", "WithThreadId" ],
        "WriteTo": [
          {
            "Name": "Console",
            "Args": {
              "outputTemplate": "[{Timestamp:yyyy-MM-dd HH:mm:ss.fff} {Level}] {Message}{NewLine}{Exception}"
            }
          },
          {
            "Name": "File",
            "Args": {
              "path": "/logs/log.txt",
              "outputTemplate": "[{Timestamp:yyyy-MM-dd HH:mm:ss.fff} {Level}] {Message}{NewLine}{Exception}",
              "rollingInterval": "Day",
              "restrictedToMinimumLevel": "Information"
            }
          }
        ]
      }
}